{
  "main.css": "static/css/main.643280c9.css",
  "main.css.map": "static/css/main.643280c9.css.map",
  "main.js": "static/js/main.d68d045f.js",
  "main.js.map": "static/js/main.d68d045f.js.map",
  "static/media/landing_hero.svg": "static/media/landing_hero.a857e9e1.svg"
}